<?xml version="1.0" encoding="UTF-8" standalone="no"?>
<svg width="66px" height="58px" viewBox="0 0 66 58" version="1.1" xmlns="http://www.w3.org/2000/svg" xmlns:xlink="http://www.w3.org/1999/xlink">
    <!-- Generator: Sketch 41.1 (35376) - http://www.bohemiancoding.com/sketch -->
    <title>ic_arch_render copy</title>
    <desc>Created with Sketch.</desc>
    <defs></defs>
    <g id="Page-1" stroke="none" stroke-width="1" fill="none" fill-rule="evenodd" stroke-linecap="round" stroke-linejoin="round">
        <g id="Group-5" stroke-width="1.7" stroke="#232323">
            <g id="ic_arch_render-copy">
                <path d="M54.2842,8.9189 C52.4352,8.9189 50.9362,10.0459 50.9362,12.2659 C50.9362,14.5829 52.9702,15.6069 54.5712,15.6069 C57.8622,15.6069 59.3712,13.3359 59.3712,10.5249 C59.3712,7.7159 57.0552,5.6729 54.2522,5.4379 C49.0212,5.2639 46.6172,8.5699 46.6172,12.8199 C46.6172,16.8969 50.2172,20.2009 54.6992,20.2009 C60.0432,20.2009 64.4502,15.8699 64.4502,10.5249 C64.4502,5.1819 60.1182,0.8499 54.7742,0.8499 L10.5262,0.8499 C5.1822,0.8499 0.8502,5.1819 0.8502,10.5249 C0.8502,15.8699 5.2582,20.2009 10.6012,20.2009 C15.0832,20.2009 18.6832,16.8969 18.6832,12.8199 C18.6832,8.5699 16.2792,5.2639 11.0482,5.4379 C8.2442,5.6729 5.9292,7.7159 5.9292,10.5249 C5.9292,13.3359 7.4392,15.6069 10.7292,15.6069 C12.3302,15.6069 14.3642,14.5829 14.3642,12.2659 C14.3642,10.0459 12.8652,8.9189 11.0162,8.9189" id="Stroke-1"></path>
                <path d="M24.2061,9.7861 L41.0951,9.7861" id="Stroke-3"></path>
                <path d="M32.6504,14.0903 L32.6504,57.1313" id="Stroke-5"></path>
                <path d="M24.2061,18.5996 L24.2061,55.4916" id="Stroke-7"></path>
                <path d="M15.9668,24.3383 L15.9668,51.5563" id="Stroke-9"></path>
                <path d="M41.0947,18.5996 L41.0947,55.4916" id="Stroke-11"></path>
                <path d="M49.334,24.3383 L49.334,51.5563" id="Stroke-13"></path>
            </g>
        </g>
    </g>
</svg>